# ds-sim COMP335@MQ, S1-01Apr, 2019
# Server-side simulator started with './ds-server -c ./configs/config_simple3.xml -v brief -n'
# Waiting for connection to port 8096 of IP address 127.0.0.1
RCVD HELO
SENT OK
RCVD AUTH emma
# Welcome  emma!
# The system information can be read from 'system.xml'
SENT OK
RCVD REDY
SENT JOBN 279 0 27 2 1900 3500
RCVD SCHD 0 xlarge 0
t:        279 job     0 (waiting) on # 0 of server xlarge (booting) SCHEDULED
SENT OK
RCVD REDY
t:        339 job     0 on # 0 of server xlarge RUNNING
t:        374 job     0 on # 0 of server xlarge COMPLETED
SENT JOBN 654 1 267 1 700 1300
RCVD SCHD 1 xlarge 0
t:        654 job     1 (running) on # 0 of server xlarge (active) SCHEDULED
t:        654 job     1 on # 0 of server xlarge RUNNING
SENT OK
RCVD REDY
t:        798 job     1 on # 0 of server xlarge COMPLETED
SENT JOBN 903 2 60 2 500 3600
RCVD SCHD 2 xlarge 0
t:        903 job     2 (running) on # 0 of server xlarge (active) SCHEDULED
t:        903 job     2 on # 0 of server xlarge RUNNING
SENT OK
RCVD REDY
SENT JOBN 976 3 137 2 500 300
RCVD SCHD 3 xlarge 0
t:        976 job     3 (running) on # 0 of server xlarge (active) SCHEDULED
t:        976 job     3 on # 0 of server xlarge RUNNING
SENT OK
RCVD REDY
t:       1086 job     3 on # 0 of server xlarge COMPLETED
SENT JOBN 1266 4 19220 3 800 1500
RCVD SCHD 4 xlarge 0
t:       1266 job     4 (running) on # 0 of server xlarge (active) SCHEDULED
t:       1266 job     4 on # 0 of server xlarge RUNNING
SENT OK
RCVD REDY
t:       1339 job     2 on # 0 of server xlarge COMPLETED
SENT JOBN 1545 5 26488 1 100 1700
RCVD SCHD 5 xlarge 0
t:       1545 job     5 (running) on # 0 of server xlarge (active) SCHEDULED
t:       1545 job     5 on # 0 of server xlarge RUNNING
SENT OK
RCVD REDY
SENT JOBN 1633 6 29949 16 3000 57300
RCVD SCHD 6 xlarge 0
t:       1633 job     6 (waiting) on # 0 of server xlarge (active) SCHEDULED
SENT OK
RCVD REDY
SENT JOBN 1701 7 1998 13 18000 45500
RCVD SCHD 7 xlarge 0
t:       1701 job     7 (waiting) on # 0 of server xlarge (active) SCHEDULED
SENT OK
RCVD REDY
SENT JOBN 1796 8 31248 2 200 2100
RCVD SCHD 8 xlarge 0
t:       1796 job     8 (running) on # 0 of server xlarge (active) SCHEDULED
t:       1796 job     8 on # 0 of server xlarge RUNNING
SENT OK
RCVD REDY
SENT JOBN 1806 9 8149 1 700 1200
RCVD SCHD 9 xlarge 0
t:       1806 job     9 (running) on # 0 of server xlarge (active) SCHEDULED
t:       1806 job     9 on # 0 of server xlarge RUNNING
SENT OK
RCVD REDY
SENT JOBN 1810 10 395 2 1300 600
RCVD SCHD 10 xlarge 0
t:       1810 job    10 (running) on # 0 of server xlarge (active) SCHEDULED
t:       1810 job    10 on # 0 of server xlarge RUNNING
SENT OK
RCVD REDY
SENT JOBN 1835 11 630 1 500 1400
RCVD SCHD 11 xlarge 0
t:       1835 job    11 (running) on # 0 of server xlarge (active) SCHEDULED
t:       1835 job    11 on # 0 of server xlarge RUNNING
SENT OK
RCVD REDY
SENT JOBN 1840 12 4146 7 2700 13800
RCVD SCHD 12 xlarge 0
t:       1840 job    12 (waiting) on # 0 of server xlarge (active) SCHEDULED
SENT OK
RCVD REDY
SENT JOBN 1851 13 8094 9 3300 10300
RCVD SCHD 13 xlarge 0
t:       1851 job    13 (waiting) on # 0 of server xlarge (active) SCHEDULED
SENT OK
RCVD REDY
SENT JOBN 1904 14 427 2 300 4100
RCVD SCHD 14 xlarge 0
t:       1904 job    14 (running) on # 0 of server xlarge (active) SCHEDULED
t:       1904 job    14 on # 0 of server xlarge RUNNING
SENT OK
RCVD REDY
SENT JOBN 1961 15 34 1 100 1000
RCVD SCHD 15 xlarge 0
t:       1961 job    15 (running) on # 0 of server xlarge (active) SCHEDULED
t:       1961 job    15 on # 0 of server xlarge RUNNING
SENT OK
RCVD REDY
SENT JOBN 1974 16 559 1 300 700
RCVD SCHD 16 xlarge 0
t:       1974 job    16 (running) on # 0 of server xlarge (active) SCHEDULED
t:       1974 job    16 on # 0 of server xlarge RUNNING
SENT OK
RCVD REDY
t:       1979 job    15 on # 0 of server xlarge COMPLETED
SENT JOBN 1981 17 204 1 100 200
RCVD SCHD 17 xlarge 0
t:       1981 job    17 (running) on # 0 of server xlarge (active) SCHEDULED
t:       1981 job    17 on # 0 of server xlarge RUNNING
SENT OK
RCVD REDY
SENT JOBN 2035 18 5810 7 7200 1000
RCVD SCHD 18 xlarge 0
t:       2035 job    18 (waiting) on # 0 of server xlarge (active) SCHEDULED
SENT OK
RCVD REDY
SENT JOBN 2046 19 158 2 800 1300
RCVD SCHD 19 xlarge 0
t:       2046 job    19 (running) on # 0 of server xlarge (active) SCHEDULED
t:       2046 job    19 on # 0 of server xlarge RUNNING
SENT OK
RCVD REDY
SENT JOBN 2164 20 662 1 400 1800
RCVD SCHD 20 xlarge 0
t:       2164 job    20 (waiting) on # 0 of server xlarge (active) SCHEDULED
SENT OK
RCVD REDY
SENT JOBN 2294 21 66145 1 500 700
RCVD SCHD 21 xlarge 0
t:       2294 job    21 (waiting) on # 0 of server xlarge (active) SCHEDULED
SENT OK
RCVD REDY
SENT JOBN 2350 22 16396 1 500 1700
RCVD SCHD 22 xlarge 0
t:       2350 job    22 (waiting) on # 0 of server xlarge (active) SCHEDULED
SENT OK
RCVD REDY
SENT JOBN 2413 23 776 1 500 100
RCVD SCHD 23 xlarge 0
t:       2413 job    23 (waiting) on # 0 of server xlarge (active) SCHEDULED
SENT OK
RCVD REDY
t:       2448 job    10 on # 0 of server xlarge COMPLETED
t:       2476 job    11 on # 0 of server xlarge COMPLETED
t:       2487 job    14 on # 0 of server xlarge COMPLETED
t:       2528 job    17 on # 0 of server xlarge COMPLETED
SENT JOBN 2725 24 4847 11 12400 43900
RCVD SCHD 24 xlarge 0
t:       2725 job    24 (waiting) on # 0 of server xlarge (active) SCHEDULED
SENT OK
RCVD REDY
SENT JOBN 2735 25 481 1 400 900
RCVD SCHD 25 xlarge 0
t:       2735 job    25 (running) on # 0 of server xlarge (active) SCHEDULED
t:       2735 job    25 on # 0 of server xlarge RUNNING
SENT OK
RCVD REDY
t:       2771 job    16 on # 0 of server xlarge COMPLETED
SENT JOBN 2879 26 200 2 200 2300
RCVD SCHD 26 xlarge 0
t:       2879 job    26 (running) on # 0 of server xlarge (active) SCHEDULED
t:       2879 job    26 on # 0 of server xlarge RUNNING
SENT OK
RCVD REDY
t:       2885 job    19 on # 0 of server xlarge COMPLETED
SENT JOBN 2923 27 20 1 200 1200
RCVD SCHD 27 xlarge 0
t:       2923 job    27 (running) on # 0 of server xlarge (active) SCHEDULED
t:       2923 job    27 on # 0 of server xlarge RUNNING
SENT OK
RCVD REDY
t:       2988 job    27 on # 0 of server xlarge COMPLETED
t:       3228 job    25 on # 0 of server xlarge COMPLETED
SENT JOBN 3241 28 50 1 400 1400
RCVD SCHD 28 xlarge 0
t:       3241 job    28 (running) on # 0 of server xlarge (active) SCHEDULED
t:       3241 job    28 on # 0 of server xlarge RUNNING
SENT OK
RCVD REDY
t:       3269 job    28 on # 0 of server xlarge COMPLETED
SENT JOBN 3570 29 34 1 400 1800
RCVD SCHD 29 xlarge 0
t:       3570 job    29 (running) on # 0 of server xlarge (active) SCHEDULED
t:       3570 job    29 on # 0 of server xlarge RUNNING
SENT OK
RCVD REDY
t:       3588 job    29 on # 0 of server xlarge COMPLETED
SENT JOBN 4130 30 45433 1 300 1200
RCVD SCHD 30 xlarge 0
t:       4130 job    30 (running) on # 0 of server xlarge (active) SCHEDULED
t:       4130 job    30 on # 0 of server xlarge RUNNING
SENT OK
RCVD REDY
SENT JOBN 4642 31 15 1 600 1100
RCVD SCHD 31 xlarge 0
t:       4642 job    31 (running) on # 0 of server xlarge (active) SCHEDULED
t:       4642 job    31 on # 0 of server xlarge RUNNING
SENT OK
RCVD REDY
t:       4670 job    31 on # 0 of server xlarge COMPLETED
SENT JOBN 5103 32 23217 8 3600 8500
RCVD SCHD 32 xlarge 0
t:       5103 job    32 (waiting) on # 0 of server xlarge (active) SCHEDULED
SENT OK
RCVD REDY
SENT JOBN 5830 33 110 1 200 1800
RCVD SCHD 33 xlarge 0
t:       5830 job    33 (running) on # 0 of server xlarge (active) SCHEDULED
t:       5830 job    33 on # 0 of server xlarge RUNNING
SENT OK
RCVD REDY
t:       5979 job    33 on # 0 of server xlarge COMPLETED
SENT JOBN 6027 34 40796 16 9500 40400
RCVD SCHD 34 xlarge 0
t:       6027 job    34 (waiting) on # 0 of server xlarge (active) SCHEDULED
SENT OK
RCVD REDY
SENT JOBN 6562 35 31037 5 3300 9500
RCVD SCHD 35 xlarge 0
t:       6562 job    35 (running) on # 0 of server xlarge (active) SCHEDULED
t:       6562 job    35 on # 0 of server xlarge RUNNING
SENT OK
RCVD REDY
SENT JOBN 7109 36 286 1 100 800
RCVD SCHD 36 xlarge 0
t:       7109 job    36 (running) on # 0 of server xlarge (active) SCHEDULED
t:       7109 job    36 on # 0 of server xlarge RUNNING
SENT OK
RCVD REDY
SENT JOBN 7137 37 15 1 600 1100
RCVD SCHD 37 xlarge 0
t:       7137 job    37 (waiting) on # 0 of server xlarge (active) SCHEDULED
SENT OK
RCVD REDY
SENT JOBN 7415 38 5 1 600 100
RCVD SCHD 38 xlarge 0
t:       7415 job    38 (waiting) on # 0 of server xlarge (active) SCHEDULED
SENT OK
RCVD REDY
t:       7582 job    36 on # 0 of server xlarge COMPLETED
SENT JOBN 7628 39 231 1 1000 1300
RCVD SCHD 39 xlarge 0
t:       7628 job    39 (running) on # 0 of server xlarge (active) SCHEDULED
t:       7628 job    39 on # 0 of server xlarge RUNNING
SENT OK
RCVD REDY
t:       7762 job    39 on # 0 of server xlarge COMPLETED
SENT JOBN 7773 40 642 3 2300 3700
RCVD SCHD 40 xlarge 0
t:       7773 job    40 (waiting) on # 0 of server xlarge (active) SCHEDULED
SENT OK
RCVD REDY
t:       8118 job    26 on # 0 of server xlarge COMPLETED
SENT JOBN 8237 41 52 1 300 1700
RCVD SCHD 41 xlarge 0
t:       8237 job    41 (running) on # 0 of server xlarge (active) SCHEDULED
t:       8237 job    41 on # 0 of server xlarge RUNNING
SENT OK
RCVD REDY
t:       8364 job    41 on # 0 of server xlarge COMPLETED
SENT JOBN 8856 42 813 2 1800 3900
RCVD SCHD 42 xlarge 0
t:       8856 job    42 (running) on # 0 of server xlarge (active) SCHEDULED
t:       8856 job    42 on # 0 of server xlarge RUNNING
SENT OK
RCVD REDY
t:       9750 job    42 on # 0 of server xlarge COMPLETED
SENT JOBN 10160 43 32801 14 21000 29400
RCVD SCHD 43 xlarge 0
t:      10160 job    43 (waiting) on # 0 of server xlarge (active) SCHEDULED
SENT OK
RCVD REDY
SENT JOBN 11298 44 79 2 700 1500
RCVD SCHD 44 xlarge 0
t:      11298 job    44 (running) on # 0 of server xlarge (active) SCHEDULED
t:      11298 job    44 on # 0 of server xlarge RUNNING
SENT OK
RCVD REDY
SENT JOBN 11622 45 5 1 700 700
RCVD SCHD 45 xlarge 0
t:      11622 job    45 (running) on # 0 of server xlarge (active) SCHEDULED
t:      11622 job    45 on # 0 of server xlarge RUNNING
SENT OK
RCVD REDY
t:      11623 job    44 on # 0 of server xlarge COMPLETED
t:      11631 job    45 on # 0 of server xlarge COMPLETED
t:      12041 job     9 on # 0 of server xlarge COMPLETED
SENT JOBN 12063 46 55554 4 2600 1600
RCVD SCHD 46 xlarge 0
t:      12063 job    46 (running) on # 0 of server xlarge (active) SCHEDULED
t:      12063 job    46 on # 0 of server xlarge RUNNING
SENT OK
RCVD REDY
SENT JOBN 13365 47 1308 1 400 1600
RCVD SCHD 47 xlarge 0
t:      13365 job    47 (waiting) on # 0 of server xlarge (active) SCHEDULED
SENT OK
RCVD REDY
SENT JOBN 14293 48 713 1 500 1600
RCVD SCHD 48 xlarge 0
t:      14293 job    48 (waiting) on # 0 of server xlarge (active) SCHEDULED
SENT OK
RCVD REDY
SENT JOBN 14774 49 49964 16 9600 31500
RCVD SCHD 49 xlarge 0
t:      14774 job    49 (waiting) on # 0 of server xlarge (active) SCHEDULED
SENT OK
RCVD REDY
SENT JOBN 16401 50 2736 8 6400 6100
RCVD SCHD 50 xlarge 0
t:      16401 job    50 (waiting) on # 0 of server xlarge (active) SCHEDULED
SENT OK
RCVD REDY
SENT JOBN 17634 51 22495 14 13800 7400
RCVD SCHD 51 xlarge 0
t:      17634 job    51 (waiting) on # 0 of server xlarge (active) SCHEDULED
SENT OK
RCVD REDY
t:      19277 job     5 on # 0 of server xlarge COMPLETED
SENT JOBN 19465 52 1166 1 1000 300
RCVD SCHD 52 xlarge 0
t:      19465 job    52 (running) on # 0 of server xlarge (active) SCHEDULED
t:      19465 job    52 on # 0 of server xlarge RUNNING
SENT OK
RCVD REDY
SENT JOBN 20511 53 1260 1 700 1800
RCVD SCHD 53 xlarge 0
t:      20511 job    53 (waiting) on # 0 of server xlarge (active) SCHEDULED
SENT OK
RCVD REDY
SENT JOBN 20551 54 2 1 600 1100
RCVD SCHD 54 xlarge 0
t:      20551 job    54 (waiting) on # 0 of server xlarge (active) SCHEDULED
SENT OK
RCVD REDY
SENT JOBN 21847 55 11833 12 17800 11900
RCVD SCHD 55 xlarge 0
t:      21847 job    55 (waiting) on # 0 of server xlarge (active) SCHEDULED
SENT OK
RCVD REDY
SENT JOBN 22578 56 690 1 900 200
RCVD SCHD 56 xlarge 0
t:      22578 job    56 (waiting) on # 0 of server xlarge (active) SCHEDULED
SENT OK
RCVD REDY
t:      22703 job     4 on # 0 of server xlarge COMPLETED
t:      23108 job    52 on # 0 of server xlarge COMPLETED
SENT JOBN 23612 57 12 1 300 1700
RCVD SCHD 57 xlarge 0
t:      23612 job    57 (running) on # 0 of server xlarge (active) SCHEDULED
t:      23612 job    57 on # 0 of server xlarge RUNNING
SENT OK
RCVD REDY
t:      24115 job    57 on # 0 of server xlarge COMPLETED
SENT JOBN 24291 58 2 1 500 400
RCVD SCHD 58 xlarge 0
t:      24291 job    58 (running) on # 0 of server xlarge (active) SCHEDULED
t:      24291 job    58 on # 0 of server xlarge RUNNING
SENT OK
RCVD REDY
t:      24293 job    58 on # 0 of server xlarge COMPLETED
SENT JOBN 26608 59 26 2 2100 3300
RCVD SCHD 59 xlarge 0
t:      26608 job    59 (running) on # 0 of server xlarge (active) SCHEDULED
t:      26608 job    59 on # 0 of server xlarge RUNNING
SENT OK
RCVD REDY
t:      26777 job    59 on # 0 of server xlarge COMPLETED
SENT JOBN 26817 60 75 1 300 1700
RCVD SCHD 60 xlarge 0
t:      26817 job    60 (running) on # 0 of server xlarge (active) SCHEDULED
t:      26817 job    60 on # 0 of server xlarge RUNNING
SENT OK
RCVD REDY
t:      26862 job    60 on # 0 of server xlarge COMPLETED
SENT JOBN 27630 61 24161 5 2500 1400
RCVD SCHD 61 xlarge 0
t:      27630 job    61 (waiting) on # 0 of server xlarge (active) SCHEDULED
SENT OK
RCVD REDY
SENT JOBN 28671 62 1280 1 600 600
RCVD SCHD 62 xlarge 0
t:      28671 job    62 (running) on # 0 of server xlarge (active) SCHEDULED
t:      28671 job    62 on # 0 of server xlarge RUNNING
SENT OK
RCVD REDY
t:      29312 job    62 on # 0 of server xlarge COMPLETED
SENT JOBN 30782 63 2759 1 500 800
RCVD SCHD 63 xlarge 0
t:      30782 job    63 (running) on # 0 of server xlarge (active) SCHEDULED
t:      30782 job    63 on # 0 of server xlarge RUNNING
SENT OK
RCVD REDY
SENT JOBN 33239 64 548 1 400 800
RCVD SCHD 64 xlarge 0
t:      33239 job    64 (running) on # 0 of server xlarge (active) SCHEDULED
t:      33239 job    64 on # 0 of server xlarge RUNNING
SENT OK
RCVD REDY
t:      33495 job    63 on # 0 of server xlarge COMPLETED
t:      33617 job    64 on # 0 of server xlarge COMPLETED
SENT JOBN 34108 65 8553 13 9200 16200
RCVD SCHD 65 xlarge 0
t:      34108 job    65 (waiting) on # 0 of server xlarge (active) SCHEDULED
SENT OK
RCVD REDY
SENT JOBN 34704 66 4003 6 3900 2400
RCVD SCHD 66 xlarge 0
t:      34704 job    66 (waiting) on # 0 of server xlarge (active) SCHEDULED
SENT OK
RCVD REDY
SENT JOBN 34814 67 12895 1 700 1700
RCVD SCHD 67 xlarge 0
t:      34814 job    67 (running) on # 0 of server xlarge (active) SCHEDULED
t:      34814 job    67 on # 0 of server xlarge RUNNING
SENT OK
RCVD REDY
SENT JOBN 36006 68 11233 1 400 300
RCVD SCHD 68 xlarge 0
t:      36006 job    68 (running) on # 0 of server xlarge (active) SCHEDULED
t:      36006 job    68 on # 0 of server xlarge RUNNING
SENT OK
RCVD REDY
SENT JOBN 36437 69 444 3 500 300
RCVD SCHD 69 xlarge 0
t:      36437 job    69 (waiting) on # 0 of server xlarge (active) SCHEDULED
SENT OK
RCVD REDY
t:      36531 job    30 on # 0 of server xlarge COMPLETED
SENT JOBN 38861 70 36743 5 1100 7300
RCVD SCHD 70 xlarge 0
t:      38861 job    70 (waiting) on # 0 of server xlarge (active) SCHEDULED
SENT OK
RCVD REDY
t:      39368 job     8 on # 0 of server xlarge COMPLETED
SENT JOBN 40396 71 190 2 1500 2900
RCVD SCHD 71 xlarge 0
t:      40396 job    71 (running) on # 0 of server xlarge (active) SCHEDULED
t:      40396 job    71 on # 0 of server xlarge RUNNING
SENT OK
RCVD REDY
t:      40571 job    71 on # 0 of server xlarge COMPLETED
t:      41405 job    35 on # 0 of server xlarge COMPLETED
SENT JOBN 42304 72 32 1 900 1600
RCVD SCHD 72 xlarge 0
t:      42304 job    72 (running) on # 0 of server xlarge (active) SCHEDULED
t:      42304 job    72 on # 0 of server xlarge RUNNING
SENT OK
RCVD REDY
t:      42329 job    72 on # 0 of server xlarge COMPLETED
t:      43044 job    68 on # 0 of server xlarge COMPLETED
SENT JOBN 44695 73 32000 1 100 2000
RCVD SCHD 73 xlarge 0
t:      44695 job    73 (running) on # 0 of server xlarge (active) SCHEDULED
t:      44695 job    73 on # 0 of server xlarge RUNNING
SENT OK
RCVD REDY
SENT JOBN 45564 74 30 1 600 1400
RCVD SCHD 74 xlarge 0
t:      45564 job    74 (running) on # 0 of server xlarge (active) SCHEDULED
t:      45564 job    74 on # 0 of server xlarge RUNNING
SENT OK
RCVD REDY
t:      45648 job    74 on # 0 of server xlarge COMPLETED
SENT JOBN 46352 75 8778 15 7900 41200
RCVD SCHD 75 xlarge 0
t:      46352 job    75 (waiting) on # 0 of server xlarge (active) SCHEDULED
SENT OK
RCVD REDY
SENT JOBN 47015 76 785 2 600 400
RCVD SCHD 76 xlarge 0
t:      47015 job    76 (running) on # 0 of server xlarge (active) SCHEDULED
t:      47015 job    76 on # 0 of server xlarge RUNNING
SENT OK
RCVD REDY
t:      47478 job    76 on # 0 of server xlarge COMPLETED
SENT JOBN 49072 77 846 1 200 700
RCVD SCHD 77 xlarge 0
t:      49072 job    77 (running) on # 0 of server xlarge (active) SCHEDULED
t:      49072 job    77 on # 0 of server xlarge RUNNING
SENT OK
RCVD REDY
t:      49863 job    77 on # 0 of server xlarge COMPLETED
SENT JOBN 50846 78 18 1 100 100
RCVD SCHD 78 xlarge 0
t:      50846 job    78 (running) on # 0 of server xlarge (active) SCHEDULED
t:      50846 job    78 on # 0 of server xlarge RUNNING
SENT OK
RCVD REDY
t:      50985 job    78 on # 0 of server xlarge COMPLETED
SENT JOBN 53511 79 18041 1 300 1600
RCVD SCHD 79 xlarge 0
t:      53511 job    79 (running) on # 0 of server xlarge (active) SCHEDULED
t:      53511 job    79 on # 0 of server xlarge RUNNING
SENT OK
RCVD REDY
SENT JOBN 53706 80 91 1 800 1800
RCVD SCHD 80 xlarge 0
t:      53706 job    80 (running) on # 0 of server xlarge (active) SCHEDULED
t:      53706 job    80 on # 0 of server xlarge RUNNING
SENT OK
RCVD REDY
t:      53824 job    80 on # 0 of server xlarge COMPLETED
SENT JOBN 54783 81 337 2 300 3200
RCVD SCHD 81 xlarge 0
t:      54783 job    81 (running) on # 0 of server xlarge (active) SCHEDULED
t:      54783 job    81 on # 0 of server xlarge RUNNING
SENT OK
RCVD REDY
t:      55179 job    81 on # 0 of server xlarge COMPLETED
t:      55276 job    67 on # 0 of server xlarge COMPLETED
SENT JOBN 57375 82 77 13 2300 3000
RCVD SCHD 82 xlarge 0
t:      57375 job    82 (waiting) on # 0 of server xlarge (active) SCHEDULED
SENT OK
RCVD REDY
SENT JOBN 58784 83 21523 12 2700 31900
RCVD SCHD 83 xlarge 0
t:      58784 job    83 (waiting) on # 0 of server xlarge (active) SCHEDULED
SENT OK
RCVD REDY
SENT JOBN 60807 84 1304615 1 700 1200
RCVD SCHD 84 xlarge 0
t:      60807 job    84 (running) on # 0 of server xlarge (active) SCHEDULED
t:      60807 job    84 on # 0 of server xlarge RUNNING
SENT OK
RCVD REDY
SENT JOBN 61678 85 32472 1 500 1300
RCVD SCHD 85 xlarge 0
t:      61678 job    85 (running) on # 0 of server xlarge (active) SCHEDULED
t:      61678 job    85 on # 0 of server xlarge RUNNING
SENT OK
RCVD REDY
SENT JOBN 64239 86 32 1 200 900
RCVD SCHD 86 xlarge 0
t:      64239 job    86 (running) on # 0 of server xlarge (active) SCHEDULED
t:      64239 job    86 on # 0 of server xlarge RUNNING
SENT OK
RCVD REDY
t:      64354 job    86 on # 0 of server xlarge COMPLETED
SENT JOBN 65322 87 46549 8 4800 3500
RCVD SCHD 87 xlarge 0
t:      65322 job    87 (running) on # 0 of server xlarge (active) SCHEDULED
t:      65322 job    87 on # 0 of server xlarge RUNNING
SENT OK
RCVD REDY
SENT JOBN 66585 88 25 1 200 1600
RCVD SCHD 88 xlarge 0
t:      66585 job    88 (waiting) on # 0 of server xlarge (active) SCHEDULED
SENT OK
RCVD REDY
t:      68205 job    73 on # 0 of server xlarge COMPLETED
SENT JOBN 68692 89 9 1 100 1500
RCVD SCHD 89 xlarge 0
t:      68692 job    89 (running) on # 0 of server xlarge (active) SCHEDULED
t:      68692 job    89 on # 0 of server xlarge RUNNING
SENT OK
RCVD REDY
t:      68699 job    89 on # 0 of server xlarge COMPLETED
SENT JOBN 69441 90 74 2 1300 2500
RCVD SCHD 90 xlarge 0
t:      69441 job    90 (waiting) on # 0 of server xlarge (active) SCHEDULED
SENT OK
RCVD REDY
t:      71210 job    79 on # 0 of server xlarge COMPLETED
SENT JOBN 71299 91 737 13 2600 39100
RCVD SCHD 91 xlarge 0
t:      71299 job    91 (waiting) on # 0 of server xlarge (active) SCHEDULED
SENT OK
RCVD REDY
SENT JOBN 73304 92 5 1 700 1800
RCVD SCHD 92 xlarge 0
t:      73304 job    92 (running) on # 0 of server xlarge (active) SCHEDULED
t:      73304 job    92 on # 0 of server xlarge RUNNING
SENT OK
RCVD REDY
t:      73316 job    92 on # 0 of server xlarge COMPLETED
SENT JOBN 75027 93 1365 1 400 200
RCVD SCHD 93 xlarge 0
t:      75027 job    93 (running) on # 0 of server xlarge (active) SCHEDULED
t:      75027 job    93 on # 0 of server xlarge RUNNING
SENT OK
RCVD REDY
t:      75736 job    93 on # 0 of server xlarge COMPLETED
SENT JOBN 76728 94 786 2 800 2800
RCVD SCHD 94 xlarge 0
t:      76728 job    94 (running) on # 0 of server xlarge (active) SCHEDULED
t:      76728 job    94 on # 0 of server xlarge RUNNING
SENT OK
RCVD REDY
t:      77363 job    94 on # 0 of server xlarge COMPLETED
SENT JOBN 78020 95 401 2 1500 1500
RCVD SCHD 95 xlarge 0
t:      78020 job    95 (running) on # 0 of server xlarge (active) SCHEDULED
t:      78020 job    95 on # 0 of server xlarge RUNNING
SENT OK
RCVD REDY
t:      78380 job    95 on # 0 of server xlarge COMPLETED
SENT JOBN 79178 96 1282 1 300 1200
RCVD SCHD 96 xlarge 0
t:      79178 job    96 (running) on # 0 of server xlarge (active) SCHEDULED
t:      79178 job    96 on # 0 of server xlarge RUNNING
SENT OK
RCVD REDY
SENT JOBN 79389 97 2759 11 5400 14300
RCVD SCHD 97 xlarge 0
t:      79389 job    97 (waiting) on # 0 of server xlarge (active) SCHEDULED
SENT OK
RCVD REDY
t:      79945 job    96 on # 0 of server xlarge COMPLETED
SENT JOBN 80403 98 43 1 100 1300
RCVD SCHD 98 xlarge 0
t:      80403 job    98 (running) on # 0 of server xlarge (active) SCHEDULED
t:      80403 job    98 on # 0 of server xlarge RUNNING
SENT OK
RCVD REDY
t:      80762 job    98 on # 0 of server xlarge COMPLETED
SENT JOBN 82402 99 1035 2 300 3000
RCVD SCHD 99 xlarge 0
t:      82402 job    99 (running) on # 0 of server xlarge (active) SCHEDULED
t:      82402 job    99 on # 0 of server xlarge RUNNING
SENT OK
RCVD REDY
t:      83010 job    99 on # 0 of server xlarge COMPLETED
SENT JOBN 83013 100 42 1 800 100
RCVD SCHD 100 xlarge 0
t:      83013 job   100 (running) on # 0 of server xlarge (active) SCHEDULED
t:      83013 job   100 on # 0 of server xlarge RUNNING
SENT OK
RCVD REDY
t:      83056 job   100 on # 0 of server xlarge COMPLETED
SENT JOBN 83139 101 7 2 900 3800
RCVD SCHD 101 xlarge 0
t:      83139 job   101 (running) on # 0 of server xlarge (active) SCHEDULED
t:      83139 job   101 on # 0 of server xlarge RUNNING
SENT OK
RCVD REDY
t:      83168 job   101 on # 0 of server xlarge COMPLETED
SENT JOBN 83781 102 5631 14 11500 35200
RCVD SCHD 102 xlarge 0
t:      83781 job   102 (waiting) on # 0 of server xlarge (active) SCHEDULED
SENT OK
RCVD REDY
SENT JOBN 84478 103 1128 2 300 2000
RCVD SCHD 103 xlarge 0
t:      84478 job   103 (running) on # 0 of server xlarge (active) SCHEDULED
t:      84478 job   103 on # 0 of server xlarge RUNNING
SENT OK
RCVD REDY
t:      85133 job   103 on # 0 of server xlarge COMPLETED
SENT JOBN 85173 104 3217 6 1700 7100
RCVD SCHD 104 xlarge 0
t:      85173 job   104 (waiting) on # 0 of server xlarge (active) SCHEDULED
SENT OK
RCVD REDY
SENT JOBN 86869 105 56348 1 900 700
RCVD SCHD 105 xlarge 0
t:      86869 job   105 (running) on # 0 of server xlarge (active) SCHEDULED
t:      86869 job   105 on # 0 of server xlarge RUNNING
SENT OK
RCVD REDY
SENT JOBN 87385 106 89 11 7300 6600
RCVD SCHD 106 xlarge 0
t:      87385 job   106 (waiting) on # 0 of server xlarge (active) SCHEDULED
SENT OK
RCVD REDY
SENT JOBN 87735 107 314849 4 4200 2200
RCVD SCHD 107 xlarge 0
t:      87735 job   107 (waiting) on # 0 of server xlarge (active) SCHEDULED
SENT OK
RCVD REDY
SENT JOBN 88283 108 48460 1 100 1000
RCVD SCHD 108 xlarge 0
t:      88283 job   108 (running) on # 0 of server xlarge (active) SCHEDULED
t:      88283 job   108 on # 0 of server xlarge RUNNING
SENT OK
RCVD REDY
SENT JOBN 89208 109 69 1 700 1700
RCVD SCHD 109 xlarge 0
t:      89208 job   109 (waiting) on # 0 of server xlarge (active) SCHEDULED
SENT OK
RCVD REDY
SENT JOBN 90417 110 644 1 600 800
RCVD SCHD 110 xlarge 0
t:      90417 job   110 (waiting) on # 0 of server xlarge (active) SCHEDULED
SENT OK
RCVD REDY
SENT JOBN 91257 111 242 1 500 800
RCVD SCHD 111 xlarge 0
t:      91257 job   111 (waiting) on # 0 of server xlarge (active) SCHEDULED
SENT OK
RCVD REDY
t:      92123 job    85 on # 0 of server xlarge COMPLETED
SENT JOBN 92532 112 213625 10 4700 19500
RCVD SCHD 112 xlarge 0
t:      92532 job   112 (waiting) on # 0 of server xlarge (active) SCHEDULED
SENT OK
RCVD REDY
SENT JOBN 94170 113 73 1 500 500
RCVD SCHD 113 xlarge 0
t:      94170 job   113 (running) on # 0 of server xlarge (active) SCHEDULED
t:      94170 job   113 on # 0 of server xlarge RUNNING
SENT OK
RCVD REDY
t:      94288 job   113 on # 0 of server xlarge COMPLETED
SENT JOBN 96205 114 81205 10 4500 26600
RCVD SCHD 114 xlarge 0
t:      96205 job   114 (waiting) on # 0 of server xlarge (active) SCHEDULED
SENT OK
RCVD REDY
SENT JOBN 97870 115 49 1 100 300
RCVD SCHD 115 xlarge 0
t:      97870 job   115 (running) on # 0 of server xlarge (active) SCHEDULED
t:      97870 job   115 on # 0 of server xlarge RUNNING
SENT OK
RCVD REDY
SENT JOBN 97958 116 28772 14 23200 2500
RCVD SCHD 116 xlarge 0
t:      97958 job   116 (waiting) on # 0 of server xlarge (active) SCHEDULED
SENT OK
RCVD REDY
t:      97987 job   115 on # 0 of server xlarge COMPLETED
SENT JOBN 98294 117 1815 10 16500 24400
RCVD SCHD 117 xlarge 0
t:      98294 job   117 (waiting) on # 0 of server xlarge (active) SCHEDULED
SENT OK
RCVD REDY
SENT JOBN 100469 118 18097 4 500 6500
RCVD SCHD 118 xlarge 0
t:     100469 job   118 (waiting) on # 0 of server xlarge (active) SCHEDULED
SENT OK
RCVD REDY
SENT JOBN 102452 119 394 1 400 200
RCVD SCHD 119 xlarge 0
t:     102452 job   119 (running) on # 0 of server xlarge (active) SCHEDULED
t:     102452 job   119 on # 0 of server xlarge RUNNING
SENT OK
RCVD REDY
t:     102836 job   119 on # 0 of server xlarge COMPLETED
SENT JOBN 104168 120 16931 2 2100 3300
RCVD SCHD 120 xlarge 0
t:     104168 job   120 (waiting) on # 0 of server xlarge (active) SCHEDULED
SENT OK
RCVD REDY
SENT JOBN 105726 121 45569 1 800 1100
RCVD SCHD 121 xlarge 0
t:     105726 job   121 (running) on # 0 of server xlarge (active) SCHEDULED
t:     105726 job   121 on # 0 of server xlarge RUNNING
SENT OK
RCVD REDY
SENT JOBN 107478 122 20894 12 8700 23000
RCVD SCHD 122 xlarge 0
t:     107478 job   122 (waiting) on # 0 of server xlarge (active) SCHEDULED
SENT OK
RCVD REDY
SENT JOBN 108872 123 17518 8 6300 800
RCVD SCHD 123 xlarge 0
t:     108872 job   123 (waiting) on # 0 of server xlarge (active) SCHEDULED
SENT OK
RCVD REDY
SENT JOBN 110977 124 23091 16 28500 56100
RCVD SCHD 124 xlarge 0
t:     110977 job   124 (waiting) on # 0 of server xlarge (active) SCHEDULED
SENT OK
RCVD REDY
SENT JOBN 111871 125 45 1 400 1600
RCVD SCHD 125 xlarge 0
t:     111871 job   125 (waiting) on # 0 of server xlarge (active) SCHEDULED
SENT OK
RCVD REDY
SENT JOBN 113377 126 806 1 400 700
RCVD SCHD 126 xlarge 0
t:     113377 job   126 (waiting) on # 0 of server xlarge (active) SCHEDULED
SENT OK
RCVD REDY
SENT JOBN 114459 127 560 1 900 2000
RCVD SCHD 127 xlarge 0
t:     114459 job   127 (waiting) on # 0 of server xlarge (active) SCHEDULED
SENT OK
RCVD REDY
t:     114614 job   108 on # 0 of server xlarge COMPLETED
SENT JOBN 115888 128 3859 1 600 1500
RCVD SCHD 128 xlarge 0
t:     115888 job   128 (running) on # 0 of server xlarge (active) SCHEDULED
t:     115888 job   128 on # 0 of server xlarge RUNNING
SENT OK
RCVD REDY
SENT JOBN 118294 129 160 1 900 700
RCVD SCHD 129 xlarge 0
t:     118294 job   129 (waiting) on # 0 of server xlarge (active) SCHEDULED
SENT OK
RCVD REDY
SENT JOBN 118829 130 36657 13 4800 9600
RCVD SCHD 130 xlarge 0
t:     118829 job   130 (waiting) on # 0 of server xlarge (active) SCHEDULED
SENT OK
RCVD REDY
t:     118948 job   128 on # 0 of server xlarge COMPLETED
SENT JOBN 120507 131 51 2 1200 3700
RCVD SCHD 131 xlarge 0
t:     120507 job   131 (waiting) on # 0 of server xlarge (active) SCHEDULED
SENT OK
RCVD REDY
SENT JOBN 120683 132 122 2 900 1300
RCVD SCHD 132 xlarge 0
t:     120683 job   132 (waiting) on # 0 of server xlarge (active) SCHEDULED
SENT OK
RCVD REDY
SENT JOBN 123810 133 46 2 300 2300
RCVD SCHD 133 xlarge 0
t:     123810 job   133 (waiting) on # 0 of server xlarge (active) SCHEDULED
SENT OK
RCVD REDY
SENT JOBN 127045 134 1025 2 1000 2800
RCVD SCHD 134 xlarge 0
t:     127045 job   134 (waiting) on # 0 of server xlarge (active) SCHEDULED
SENT OK
RCVD REDY
SENT JOBN 128375 135 19 1 100 1300
RCVD SCHD 135 xlarge 0
t:     128375 job   135 (running) on # 0 of server xlarge (active) SCHEDULED
t:     128375 job   135 on # 0 of server xlarge RUNNING
SENT OK
RCVD REDY
t:     128467 job   135 on # 0 of server xlarge COMPLETED
SENT JOBN 131482 136 3963 1 600 400
RCVD SCHD 136 xlarge 0
t:     131482 job   136 (running) on # 0 of server xlarge (active) SCHEDULED
t:     131482 job   136 on # 0 of server xlarge RUNNING
SENT OK
RCVD REDY
SENT NONE
RCVD QUIT
t:     161444 job   121 on # 0 of server xlarge COMPLETED
t:     166479 job   136 on # 0 of server xlarge COMPLETED
t:     166479 job     6 on # 0 of server xlarge RUNNING
t:     188900 job     6 on # 0 of server xlarge COMPLETED
t:     188900 job     7 on # 0 of server xlarge RUNNING
t:     195127 job     7 on # 0 of server xlarge COMPLETED
t:     195127 job    12 on # 0 of server xlarge RUNNING
t:     224018 job    12 on # 0 of server xlarge COMPLETED
t:     224018 job    13 on # 0 of server xlarge RUNNING
t:     236293 job    13 on # 0 of server xlarge COMPLETED
t:     236293 job    18 on # 0 of server xlarge RUNNING
t:     246981 job    18 on # 0 of server xlarge COMPLETED
t:     246981 job    20 on # 0 of server xlarge RUNNING
t:     247445 job    20 on # 0 of server xlarge COMPLETED
t:     247445 job    21 on # 0 of server xlarge RUNNING
t:     288453 job    21 on # 0 of server xlarge COMPLETED
t:     288453 job    22 on # 0 of server xlarge RUNNING
t:     309905 job    87 on # 0 of server xlarge COMPLETED
t:     330022 job    22 on # 0 of server xlarge COMPLETED
t:     330022 job    23 on # 0 of server xlarge RUNNING
t:     330424 job    23 on # 0 of server xlarge COMPLETED
t:     330424 job    24 on # 0 of server xlarge RUNNING
t:     351570 job    24 on # 0 of server xlarge COMPLETED
t:     351570 job    32 on # 0 of server xlarge RUNNING
t:     373760 job    32 on # 0 of server xlarge COMPLETED
t:     373760 job    34 on # 0 of server xlarge RUNNING
t:     402451 job    34 on # 0 of server xlarge COMPLETED
t:     402451 job    37 on # 0 of server xlarge RUNNING
t:     402476 job    37 on # 0 of server xlarge COMPLETED
t:     402476 job    38 on # 0 of server xlarge RUNNING
t:     402797 job    38 on # 0 of server xlarge COMPLETED
t:     402797 job    40 on # 0 of server xlarge RUNNING
t:     405422 job    40 on # 0 of server xlarge COMPLETED
t:     405422 job    43 on # 0 of server xlarge RUNNING
t:     437979 job    43 on # 0 of server xlarge COMPLETED
t:     437979 job    47 on # 0 of server xlarge RUNNING
t:     438643 job    47 on # 0 of server xlarge COMPLETED
t:     438643 job    48 on # 0 of server xlarge RUNNING
t:     439061 job    48 on # 0 of server xlarge COMPLETED
t:     439061 job    49 on # 0 of server xlarge RUNNING
t:     479148 job    49 on # 0 of server xlarge COMPLETED
t:     479148 job    50 on # 0 of server xlarge RUNNING
t:     510497 job    50 on # 0 of server xlarge COMPLETED
t:     510497 job    51 on # 0 of server xlarge RUNNING
t:     528831 job    51 on # 0 of server xlarge COMPLETED
t:     528831 job    53 on # 0 of server xlarge RUNNING
t:     531391 job    53 on # 0 of server xlarge COMPLETED
t:     531391 job    54 on # 0 of server xlarge RUNNING
t:     531393 job    54 on # 0 of server xlarge COMPLETED
t:     531393 job    55 on # 0 of server xlarge RUNNING
t:     546806 job    55 on # 0 of server xlarge COMPLETED
t:     546806 job    56 on # 0 of server xlarge RUNNING
t:     547193 job    56 on # 0 of server xlarge COMPLETED
t:     547193 job    61 on # 0 of server xlarge RUNNING
t:     559940 job    61 on # 0 of server xlarge COMPLETED
t:     559940 job    65 on # 0 of server xlarge RUNNING
t:     600700 job    65 on # 0 of server xlarge COMPLETED
t:     600700 job    66 on # 0 of server xlarge RUNNING
t:     613908 job    66 on # 0 of server xlarge COMPLETED
t:     613908 job    69 on # 0 of server xlarge RUNNING
t:     618297 job    69 on # 0 of server xlarge COMPLETED
t:     618297 job    70 on # 0 of server xlarge RUNNING
t:     648204 job   105 on # 0 of server xlarge COMPLETED
t:     651976 job    70 on # 0 of server xlarge COMPLETED
t:     651976 job    75 on # 0 of server xlarge RUNNING
t:     662380 job    75 on # 0 of server xlarge COMPLETED
t:     662380 job    82 on # 0 of server xlarge RUNNING
t:     687631 job    82 on # 0 of server xlarge COMPLETED
t:     687631 job    83 on # 0 of server xlarge RUNNING
t:     728933 job    83 on # 0 of server xlarge COMPLETED
t:     728933 job    88 on # 0 of server xlarge RUNNING
t:     728952 job    88 on # 0 of server xlarge COMPLETED
t:     728952 job    90 on # 0 of server xlarge RUNNING
t:     728994 job    90 on # 0 of server xlarge COMPLETED
t:     728994 job    91 on # 0 of server xlarge RUNNING
t:     741589 job    91 on # 0 of server xlarge COMPLETED
t:     741589 job    97 on # 0 of server xlarge RUNNING
t:     780826 job    97 on # 0 of server xlarge COMPLETED
t:     780826 job   102 on # 0 of server xlarge RUNNING
t:     807638 job   102 on # 0 of server xlarge COMPLETED
t:     807638 job   104 on # 0 of server xlarge RUNNING
t:     830747 job    84 on # 0 of server xlarge COMPLETED
t:     839693 job   104 on # 0 of server xlarge COMPLETED
t:     839693 job   106 on # 0 of server xlarge RUNNING
t:     861852 job   106 on # 0 of server xlarge COMPLETED
t:     861852 job   107 on # 0 of server xlarge RUNNING
t:     887648 job    46 on # 0 of server xlarge COMPLETED
t:    1660104 job   107 on # 0 of server xlarge COMPLETED
t:    1660104 job   109 on # 0 of server xlarge RUNNING
t:    1660149 job   109 on # 0 of server xlarge COMPLETED
t:    1660149 job   110 on # 0 of server xlarge RUNNING
t:    1661005 job   110 on # 0 of server xlarge COMPLETED
t:    1661005 job   111 on # 0 of server xlarge RUNNING
t:    1661550 job   111 on # 0 of server xlarge COMPLETED
t:    1661550 job   112 on # 0 of server xlarge RUNNING
t:    1912851 job   112 on # 0 of server xlarge COMPLETED
t:    1912851 job   114 on # 0 of server xlarge RUNNING
t:    2243574 job   114 on # 0 of server xlarge COMPLETED
t:    2243574 job   116 on # 0 of server xlarge RUNNING
t:    2265052 job   116 on # 0 of server xlarge COMPLETED
t:    2265052 job   117 on # 0 of server xlarge RUNNING
t:    2276807 job   117 on # 0 of server xlarge COMPLETED
t:    2276807 job   118 on # 0 of server xlarge RUNNING
t:    2319297 job   118 on # 0 of server xlarge COMPLETED
t:    2319297 job   120 on # 0 of server xlarge RUNNING
t:    2351245 job   120 on # 0 of server xlarge COMPLETED
t:    2351245 job   122 on # 0 of server xlarge RUNNING
t:    2366887 job   122 on # 0 of server xlarge COMPLETED
t:    2366887 job   123 on # 0 of server xlarge RUNNING
t:    2382524 job   123 on # 0 of server xlarge COMPLETED
t:    2382524 job   124 on # 0 of server xlarge RUNNING
t:    2401640 job   124 on # 0 of server xlarge COMPLETED
t:    2401640 job   125 on # 0 of server xlarge RUNNING
t:    2401795 job   125 on # 0 of server xlarge COMPLETED
t:    2401795 job   126 on # 0 of server xlarge RUNNING
t:    2402557 job   126 on # 0 of server xlarge COMPLETED
t:    2402557 job   127 on # 0 of server xlarge RUNNING
t:    2403035 job   127 on # 0 of server xlarge COMPLETED
t:    2403035 job   129 on # 0 of server xlarge RUNNING
t:    2403131 job   129 on # 0 of server xlarge COMPLETED
t:    2403131 job   130 on # 0 of server xlarge RUNNING
t:    2436308 job   130 on # 0 of server xlarge COMPLETED
t:    2436308 job   131 on # 0 of server xlarge RUNNING
t:    2436476 job   131 on # 0 of server xlarge COMPLETED
t:    2436476 job   132 on # 0 of server xlarge RUNNING
t:    2437192 job   132 on # 0 of server xlarge COMPLETED
t:    2437192 job   133 on # 0 of server xlarge RUNNING
t:    2437508 job   133 on # 0 of server xlarge COMPLETED
t:    2437508 job   134 on # 0 of server xlarge RUNNING
t:    2438037 job   134 on # 0 of server xlarge COMPLETED
# ---------------------------------------------------------------------------
# 0 tiny servers used with a utilisation of 0.00 at the cost of $0.00
# 0 small servers used with a utilisation of 0.00 at the cost of $0.00
# 0 medium servers used with a utilisation of 0.00 at the cost of $0.00
# 0 large servers used with a utilisation of 0.00 at the cost of $0.00
# 1 xlarge servers used with a utilisation of 97.50 at the cost of $1056.36
# ================================ [ Total ] ================================
# Total #servers used: 1, avg utilisation: 97.50 and total cost: $1056.36
