# ds-sim COMP335@MQ, S1-01Apr, 2019
# Server-side simulator started with './ds-server -c ./configs/ds-config1.xml -v brief -n'
# Waiting for connection to port 8096 of IP address 127.0.0.1
RCVD HELO
SENT OK
RCVD AUTH emma
# Welcome  emma!
# The system information can be read from 'system.xml'
SENT OK
RCVD REDY
SENT JOBN 83 0 1566 1 200 300
RCVD SCHD 0 large 0
t:         83 job     0 (waiting) on # 0 of server large (booting) SCHEDULED
SENT OK
RCVD REDY
t:        143 job     0 on # 0 of server large RUNNING
SENT JOBN 290 1 7 1 400 1200
RCVD SCHD 1 large 0
t:        290 job     1 (running) on # 0 of server large (active) SCHEDULED
t:        290 job     1 on # 0 of server large RUNNING
SENT OK
RCVD REDY
t:        305 job     1 on # 0 of server large COMPLETED
SENT JOBN 336 2 96 2 2100 2800
RCVD SCHD 2 large 0
t:        336 job     2 (running) on # 0 of server large (active) SCHEDULED
t:        336 job     2 on # 0 of server large RUNNING
SENT OK
RCVD REDY
t:        438 job     2 on # 0 of server large COMPLETED
SENT JOBN 443 3 282 2 500 1100
RCVD SCHD 3 large 0
t:        443 job     3 (running) on # 0 of server large (active) SCHEDULED
t:        443 job     3 on # 0 of server large RUNNING
SENT OK
RCVD REDY
t:        685 job     3 on # 0 of server large COMPLETED
SENT JOBN 728 4 1431 8 8000 15400
RCVD SCHD 4 large 0
t:        728 job     4 (waiting) on # 0 of server large (active) SCHEDULED
SENT OK
RCVD REDY
SENT JOBN 867 5 133 1 800 1400
RCVD SCHD 5 large 0
t:        867 job     5 (running) on # 0 of server large (active) SCHEDULED
t:        867 job     5 on # 0 of server large RUNNING
SENT OK
RCVD REDY
SENT JOBN 870 6 65 1 900 200
RCVD SCHD 6 large 0
t:        870 job     6 (running) on # 0 of server large (active) SCHEDULED
t:        870 job     6 on # 0 of server large RUNNING
SENT OK
RCVD REDY
t:        904 job     6 on # 0 of server large COMPLETED
SENT JOBN 954 7 741 1 1000 900
RCVD SCHD 7 large 0
t:        954 job     7 (running) on # 0 of server large (active) SCHEDULED
t:        954 job     7 on # 0 of server large RUNNING
SENT OK
RCVD REDY
t:        987 job     0 on # 0 of server large COMPLETED
SENT JOBN 1042 8 477 1 800 1700
RCVD SCHD 8 large 0
t:       1042 job     8 (running) on # 0 of server large (active) SCHEDULED
t:       1042 job     8 on # 0 of server large RUNNING
SENT OK
RCVD REDY
SENT JOBN 1064 9 47267 8 6300 4100
RCVD SCHD 9 large 0
t:       1064 job     9 (waiting) on # 0 of server large (active) SCHEDULED
SENT OK
RCVD REDY
SENT NONE
RCVD QUIT
t:       1102 job     5 on # 0 of server large COMPLETED
t:       1402 job     8 on # 0 of server large COMPLETED
t:       1402 job     4 on # 0 of server large RUNNING
t:       2205 job     7 on # 0 of server large COMPLETED
t:       5979 job     4 on # 0 of server large COMPLETED
t:       5979 job     9 on # 0 of server large RUNNING
t:      86536 job     9 on # 0 of server large COMPLETED
# ---------------------------------------------------------------------------
# 0 small servers used with a utilisation of 0.00 at the cost of $0.00
# 0 medium servers used with a utilisation of 0.00 at the cost of $0.00
# 1 large servers used with a utilisation of 99.74 at the cost of $19.12
# ================================ [ Total ] ================================
# Total #servers used: 1, avg utilisation: 99.74 and total cost: $19.12
